ss://YWVzLTEyOC1nY206MjAyMzAxMDAwMDAwMDAwMDAwMDAwMDIw@aws.sg.securevpn.cc:1020/?plugin=obfs-local%3Bobfs%3Dhttp%3Bobfs-host%3Dbulianglin.com#aws
trojan://a3278882-3614-39cf-a3d6-faefa8c910ab@azhk097.xiaohouzi.club:17115?allowInsecure=1&sni=azhk097.xiaohouzi.club#%F0%9F%87%AD%F0%9F%87%B0%20%E9%A6%99%E6%B8%AFAZURE-%E8%90%BD%E5%9C%B0097
trojan://a3278882-3614-39cf-a3d6-faefa8c910ab@aws-hk02.xiaohouzi.club:42541?allowInsecure=1&sni=aws-hk02.xiaohouzi.club#%F0%9F%87%AD%F0%9F%87%B0%20%E9%A6%99%E6%B8%AFAWS02
trojan://a3278882-3614-39cf-a3d6-faefa8c910ab@aws-hk01.xiaohouzi.club:19363?allowInsecure=1&sni=aws-hk01.xiaohouzi.club#%F0%9F%87%AD%F0%9F%87%B0%20%E9%A6%99%E6%B8%AFAWS01
trojan://a3278882-3614-39cf-a3d6-faefa8c910ab@hk-azure04.xiaohouzi.club:19358?allowInsecure=1&sni=hk-azure04.xiaohouzi.club#%F0%9F%87%AD%F0%9F%87%B0%20%E9%A6%99%E6%B8%AFAWV091
trojan://a3278882-3614-39cf-a3d6-faefa8c910ab@a89.xiaohouzi.club:19353?allowInsecure=1&sni=a89.xiaohouzi.club#%F0%9F%87%AD%F0%9F%87%B0%20%E9%A6%99%E6%B8%AFAZURE-%E8%90%BD%E5%9C%B005
trojan://a3278882-3614-39cf-a3d6-faefa8c910ab@hk-b.xiaohouzi.club:10105?allowInsecure=1&sni=hk-b.xiaohouzi.club#%F0%9F%87%AD%F0%9F%87%B0%20A----a%E9%A6%99%E6%B8%AF%E7%9B%B4%E8%BF%9E01
trojan://a3278882-3614-39cf-a3d6-faefa8c910ab@hk-azure03.xiaohouzi.club:19359?allowInsecure=1&sni=hk-azure03.xiaohouzi.club#%F0%9F%87%AD%F0%9F%87%B0%20%E9%A6%99%E6%B8%AFAWV09
trojan://a3278882-3614-39cf-a3d6-faefa8c910ab@a1.xiaohouzi.club:19355?allowInsecure=1&sni=a1.xiaohouzi.club#%F0%9F%87%AD%F0%9F%87%B0%20%E9%A6%99%E6%B8%AFAZURE-%E8%90%BD%E5%9C%B003
trojan://a3278882-3614-39cf-a3d6-faefa8c910ab@iplc.xiaohouzi.club:20012?allowInsecure=1&sni=supaz02.xiaohouzi.club#%F0%9F%87%AD%F0%9F%87%B0%20A1%E9%A6%99%E6%B8%AFiplc-02
trojan://a3278882-3614-39cf-a3d6-faefa8c910ab@iplc.xiaohouzi.club:20018?allowInsecure=1&sni=aws-hk03.xiaohouzi.club#%F0%9F%87%AD%F0%9F%87%B0%20A1%E9%A6%99%E6%B8%AFiplc-08
trojan://a3278882-3614-39cf-a3d6-faefa8c910ab@azhk003.xiaohouzi.club:19357?allowInsecure=1&sni=azhk003.xiaohouzi.club#%F0%9F%87%AD%F0%9F%87%B0%20%E9%A6%99%E6%B8%AFAWV092
trojan://a3278882-3614-39cf-a3d6-faefa8c910ab@hnm.xiaohouzi.club:17113?allowInsecure=1&sni=shk01.xiaohouzi.club#%F0%9F%87%AD%F0%9F%87%B0%20%E9%A6%99%E6%B8%AF%E8%B6%85%E7%BA%A7%E8%8A%82%E7%82%B901
trojan://a3278882-3614-39cf-a3d6-faefa8c910ab@iplc.xiaohouzi.club:20015?allowInsecure=1&sni=supaz05.xiaohouzi.club#%F0%9F%87%AD%F0%9F%87%B0%20A1%E9%A6%99%E6%B8%AFiplc-05
vmess://eyJ2IjoiMiIsInBzIjoiR2V0QUZyZWVOb2RlLVNlYXR0bGUiLCJhZGQiOiJ2MnJheS5vbmxpbmUiLCJwb3J0IjoiNDQzIiwidHlwZSI6Im5vbmUiLCJpZCI6IjJGMDk0ODQ1LUUyQkQtRUJGNy1ERUI3LTk5NTk5MjQzNkZBRiIsImFpZCI6IjAiLCJuZXQiOiJ3cyIsInBhdGgiOiIvc3BlZWR0ZXN0IiwiaG9zdCI6IlNlYXR0bGUudjJyYXkub25saW5lIiwidGxzIjoidGxzIn0=
vmess://eyJ2IjoiMiIsInBzIjoiR2V0QUZyZWVOb2RlLUxvc0FuZ2VsZXMiLCJhZGQiOiJ2MnJheS5vbmxpbmUiLCJwb3J0IjoiNDQzIiwidHlwZSI6Im5vbmUiLCJpZCI6IjJGMDk0ODQ1LUUyQkQtRUJGNy1ERUI3LTk5NTk5MjQzNkZBRiIsImFpZCI6IjAiLCJuZXQiOiJ3cyIsInBhdGgiOiIvc3BlZWR0ZXN0IiwiaG9zdCI6Ikxvc0FuZ2VsZXMudjJyYXkub25saW5lIiwidGxzIjoidGxzIn0=
vmess://eyJ2IjoiMiIsInBzIjoiR2V0QUZyZWVOb2RlLUFtc3RlcmRhbSIsImFkZCI6InYycmF5Lm9ubGluZSIsInBvcnQiOiI0NDMiLCJ0eXBlIjoibm9uZSIsImlkIjoiMkYwOTQ4NDUtRTJCRC1FQkY3LURFQjctOTk1OTkyNDM2RkFGIiwiYWlkIjoiMCIsIm5ldCI6IndzIiwicGF0aCI6Ii9zcGVlZHRlc3QiLCJob3N0IjoiQW1zdGVyZGFtLnYycmF5Lm9ubGluZSIsInRscyI6InRscyJ9
ss://YWVzLTI1Ni1nY206NTA3MzY0ZmI3OTFl@fn600mlines021.svcline.com:995#%F0%9F%87%AD%F0%9F%87%B0%20%E9%A6%99%E6%B8%AFIEPL%E5%86%85%E7%BD%91%E4%B8%93%E7%BA%BF01
ss://YWVzLTI1Ni1nY206YTgwMTYzMmQyZTJl@fn600mlines024.svcline.com:995#%F0%9F%87%AD%F0%9F%87%B0%20%E9%A6%99%E6%B8%AF%E8%B7%A8%E5%A2%83%E9%87%91%E8%9E%8D%E4%B8%93%E7%BA%BF03
ss://YWVzLTI1Ni1nY206YjgyMzQ0YjNkNTMx@fn600mliness016.svcline.com:995#%F0%9F%87%AD%F0%9F%87%B0%20%E9%A6%99%E6%B8%AFIEPL%E5%86%85%E7%BD%91%E4%B8%93%E7%BA%BF02
